{
    "cinemas":[
        {
            "id":13620,
            "mark":0,
            "nm":"大地影院(白云新市天地店)",
            "sellPrice":"33.9",
            "addr":"白云区云城街新市南街45号联富文化商业广场F座3楼全层（近联富文化商业广场）",
            "distance":"300m",
            "tag":{
                "allowRefund":0,
                "buyout":0,
                "cityCardTag":0,
                "deal":0,
                "endorse":0,
                "hallType":[
                    "杜比全景声厅"
                ],
                "hallTypeVOList":[
                    {
                        "name":"杜比全景声厅",
                        "url":""
                    }
                ],
                "sell":1,
                "snack":1,
                "vipTag":"折扣卡"
            },
            "promotion":{
                "cardPromotionTag":"开卡特惠，首单2张立减10元"
            }
        },
        {
            "id":118,
            "mark":0,
            "nm":"金逸影城(百信店)",
            "sellPrice":"25",
            "addr":"白云区机场路1423-1455百信广场三期五楼（近新市）",
            "distance":"600m",
            "tag":{
                "allowRefund":0,
                "buyout":0,
                "cityCardTag":0,
                "deal":0,
                "endorse":0,
                "hallType":[
                    "杜比全景声厅"
                ],
                "hallTypeVOList":[
                    {
                        "name":"杜比全景声厅",
                        "url":""
                    }
                ],
                "sell":1,
                "snack":1,
                "vipTag":"折扣卡"
            },
            "promotion":{
                "cardPromotionTag":"开卡特惠，首单2张立减10元"
            }
        },
        {
            "id":30,
            "mark":0,
            "nm":"橙天嘉禾影城(白云店)",
            "sellPrice":"38.9",
            "addr":"白云区机场路云霄街5号停机坪购物广场3楼（近地铁白云公园A出口）",
            "distance":"800m",
            "tag":{
                "allowRefund":0,
                "buyout":0,
                "cityCardTag":0,
                "deal":0,
                "endorse":0,
                "hallType":[
                    "4K厅"
                ],
                "hallTypeVOList":[
                    {
                        "name":"4K厅",
                        "url":""
                    }
                ],
                "sell":1,
                "snack":1,
                "vipTag":"折扣卡"
            },
            "promotion":{
                "cardPromotionTag":"开卡特惠，首单2张立减10元"
            }
        },
        {
            "id":17066,
            "mark":0,
            "nm":"百老汇影城(凯德店)",
            "sellPrice":"39",
            "addr":"白云区云城西路890号凯德广场·云尚5楼",
            "distance":"1km",
            "tag":{
                "allowRefund":0,
                "buyout":0,
                "cityCardTag":0,
                "deal":0,
                "endorse":0,
                "hallType":[
                    "LUXE巨幕厅"
                ],
                "hallTypeVOList":[
                    {
                        "name":"LUXE巨幕厅",
                        "url":""
                    }
                ],
                "sell":1,
                "snack":1
            },
            "promotion":{

            }
        },
        {
            "id":24775,
            "mark":0,
            "nm":"唐德国际影城(广州白云汇店)",
            "sellPrice":"35",
            "addr":"白云区黄石东路88号",
            "distance":"1.6km",
            "tag":{
                "allowRefund":0,
                "buyout":0,
                "cityCardTag":0,
                "deal":0,
                "endorse":0,
                "hallTypeVOList":[

                ],
                "sell":1,
                "snack":1,
                "vipTag":"折扣卡"
            },
            "promotion":{
                "cardPromotionTag":"开卡特惠，首单2张立减10元"
            }
        },
        {
            "id":59,
            "mark":0,
            "nm":"万达国际影城(白云万达广场店)",
            "sellPrice":"45.5",
            "addr":"白云区云城东路501号万达广场3层",
            "distance":"1.7km",
            "tag":{
                "allowRefund":0,
                "buyout":0,
                "cityCardTag":0,
                "deal":0,
                "endorse":0,
                "hallType":[
                    "IMAX厅",
                    "杜比全景声厅",
                    "RealD 6FL厅"
                ],
                "hallTypeVOList":[
                    {
                        "name":"IMAX厅",
                        "url":""
                    },
                    {
                        "name":"杜比全景声厅",
                        "url":""
                    },
                    {
                        "name":"RealD 6FL厅",
                        "url":""
                    }
                ],
                "sell":1,
                "snack":1,
                "vipTag":"折扣卡"
            },
            "promotion":{

            }
        },
        {
            "id":16359,
            "mark":0,
            "nm":"越界思哲影城黄石店",
            "sellPrice":"29",
            "addr":"白云区黄石西路383号凯粤大厦2楼",
            "distance":"2km",
            "tag":{
                "allowRefund":0,
                "buyout":0,
                "cityCardTag":0,
                "deal":0,
                "endorse":0,
                "hallTypeVOList":[

                ],
                "sell":1,
                "snack":1,
                "vipTag":"折扣卡"
            },
            "promotion":{

            }
        },
        {
            "id":16612,
            "mark":0,
            "nm":"粤骏电影城",
            "sellPrice":"23",
            "addr":"白云区棠景街沙涌北大街新乐嘉商业广场A1区二楼",
            "distance":"2.6km",
            "tag":{
                "allowRefund":0,
                "buyout":0,
                "cityCardTag":0,
                "deal":0,
                "endorse":0,
                "hallTypeVOList":[

                ],
                "sell":1,
                "snack":1,
                "vipTag":"折扣卡"
            },
            "promotion":{
                "cardPromotionTag":"开卡特惠，首单2张立减10元"
            }
        },
        {
            "id":13500,
            "mark":0,
            "nm":"哈艺时尚影城(白云YH城店)",
            "sellPrice":"24",
            "addr":"白云区鹤泰路鹤龙街YH城3楼208号（鹤边,黄边）",
            "distance":"2.9km",
            "tag":{
                "allowRefund":0,
                "buyout":0,
                "cityCardTag":0,
                "deal":0,
                "endorse":0,
                "hallTypeVOList":[

                ],
                "sell":1,
                "snack":1,
                "vipTag":"折扣卡"
            },
            "promotion":{
                "cardPromotionTag":"开卡特惠，首单2张立减8元"
            }
        },
        {
            "id":24002,
            "mark":0,
            "nm":"佳映国际影城(广州江夏店)",
            "sellPrice":"28",
            "addr":"白云区黄石街江夏新天地广场5层（地铁2号线B出口对面）",
            "distance":"3km",
            "tag":{
                "allowRefund":0,
                "buyout":0,
                "cityCardTag":0,
                "deal":0,
                "endorse":0,
                "hallTypeVOList":[

                ],
                "sell":1,
                "snack":1
            },
            "promotion":{

            }
        },
        {
            "id":23973,
            "mark":0,
            "nm":"中影聚丰国际影城(广州白云店)",
            "sellPrice":"38",
            "addr":"白云区石夏路288号金铂广场7楼",
            "distance":"3.2km",
            "tag":{
                "allowRefund":0,
                "buyout":0,
                "cityCardTag":0,
                "deal":0,
                "endorse":0,
                "hallType":[
                    "DTS:X 临境音厅"
                ],
                "hallTypeVOList":[
                    {
                        "name":"DTS:X 临境音厅",
                        "url":""
                    }
                ],
                "sell":1,
                "snack":1,
                "vipTag":"折扣卡"
            },
            "promotion":{
                "cardPromotionTag":"开卡特惠，首单2张立减8元"
            }
        },
        {
            "id":13509,
            "mark":0,
            "nm":"IDC国际影城(白云尚城店)",
            "sellPrice":"24",
            "addr":"白云区尚景街1号白云尚城文化活动中心",
            "distance":"3.6km",
            "tag":{
                "allowRefund":0,
                "buyout":0,
                "cityCardTag":0,
                "deal":0,
                "endorse":0,
                "hallType":[
                    "杜比全景声厅"
                ],
                "hallTypeVOList":[
                    {
                        "name":"杜比全景声厅",
                        "url":""
                    }
                ],
                "sell":1,
                "snack":1,
                "vipTag":"折扣卡"
            },
            "promotion":{
                "cardPromotionTag":"开卡特惠，首单2张立减8元"
            }
        },
        {
            "id":24091,
            "mark":0,
            "nm":"左岸国际影城(石井店)",
            "sellPrice":"38",
            "addr":"白云区白云湖石沙路86号石井国际综合广场第四层",
            "distance":"3.6km",
            "tag":{
                "allowRefund":0,
                "buyout":0,
                "cityCardTag":0,
                "deal":0,
                "endorse":0,
                "hallTypeVOList":[

                ],
                "sell":1,
                "snack":1,
                "vipTag":"折扣卡"
            },
            "promotion":{

            }
        },
        {
            "id":17014,
            "mark":0,
            "nm":"哈艺时尚影城(同德围店)",
            "sellPrice":"27",
            "addr":"白云区西槎路221号凯升广场首层（上步牌坊对面）",
            "distance":"3.7km",
            "tag":{
                "allowRefund":0,
                "buyout":0,
                "cityCardTag":0,
                "deal":0,
                "endorse":0,
                "hallTypeVOList":[

                ],
                "sell":1,
                "snack":1,
                "vipTag":"折扣卡"
            },
            "promotion":{
                "cardPromotionTag":"开卡特惠，首单2张立减8元"
            }
        },
        {
            "id":8254,
            "mark":0,
            "nm":"展映龙骏影城",
            "sellPrice":"23",
            "addr":"白云区增槎路1068号龙骏广场F座3层",
            "distance":"4km",
            "tag":{
                "allowRefund":0,
                "buyout":0,
                "cityCardTag":0,
                "deal":0,
                "endorse":0,
                "hallType":[
                    "杜比全景声厅"
                ],
                "hallTypeVOList":[
                    {
                        "name":"杜比全景声厅",
                        "url":""
                    }
                ],
                "sell":1,
                "snack":1,
                "vipTag":"折扣卡"
            },
            "promotion":{
                "cardPromotionTag":"开卡特惠，首单最高立减30元！"
            }
        },
        {
            "id":9580,
            "mark":0,
            "nm":"横店电影城(庆丰店)",
            "sellPrice":"39",
            "addr":"白云区庆丰广场路财智广场3楼",
            "distance":"4.5km",
            "tag":{
                "allowRefund":0,
                "buyout":0,
                "cityCardTag":0,
                "deal":0,
                "endorse":0,
                "hallTypeVOList":[

                ],
                "sell":1,
                "snack":1,
                "vipTag":"折扣卡"
            },
            "promotion":{
                "cardPromotionTag":"开卡特惠，首单2张立减12元"
            }
        },
        {
            "id":7382,
            "mark":0,
            "nm":"保利影城(同德店)",
            "sellPrice":"29",
            "addr":"白云区西槎路99号骐利广场5楼（鹅掌坦）",
            "distance":"4.8km",
            "tag":{
                "allowRefund":0,
                "buyout":0,
                "cityCardTag":0,
                "deal":0,
                "endorse":0,
                "hallTypeVOList":[

                ],
                "sell":1,
                "snack":1,
                "vipTag":"折扣卡"
            },
            "promotion":{
                "cardPromotionTag":"开卡特惠，首单2张立减6元"
            }
        },
        {
            "id":16158,
            "mark":0,
            "nm":"中影JAJ24小时咖啡影院(嘉汇广场店)",
            "sellPrice":"33",
            "addr":"白云区鹤龙街彭西大街嘉汇广场3楼",
            "distance":"4.8km",
            "tag":{
                "allowRefund":0,
                "buyout":0,
                "cityCardTag":0,
                "deal":0,
                "endorse":0,
                "hallTypeVOList":[

                ],
                "sell":1,
                "snack":1,
                "vipTag":"折扣卡"
            },
            "promotion":{
                "cardPromotionTag":"开卡特惠，首单2张立减6元"
            }
        },
        {
            "id":93,
            "mark":0,
            "nm":"华影星美国际影城(环市西路店)",
            "sellPrice":"31",
            "addr":"荔湾区环市西路133号华南影都D区2楼（近广园西路）",
            "distance":"5km",
            "tag":{
                "allowRefund":0,
                "buyout":0,
                "cityCardTag":0,
                "deal":0,
                "endorse":0,
                "hallType":[
                    "4K厅"
                ],
                "hallTypeVOList":[
                    {
                        "name":"4K厅",
                        "url":""
                    }
                ],
                "sell":1,
                "snack":0,
                "vipTag":"折扣卡"
            },
            "promotion":{
                "cardPromotionTag":"开卡特惠，首单最高立减30元！"
            }
        },
        {
            "id":25300,
            "mark":0,
            "nm":"中影天川国际影城(永泰店)",
            "sellPrice":"23",
            "addr":"白云区丛云路945号嘉福商业广场三楼",
            "distance":"5.3km",
            "tag":{
                "allowRefund":0,
                "buyout":0,
                "cityCardTag":0,
                "deal":0,
                "endorse":0,
                "hallTypeVOList":[

                ],
                "sell":1,
                "snack":0
            },
            "promotion":{

            }
        }
    ],
    "ct_pois":[
        {
            "ct_poi":"936879945111165696_a13620_c0",
            "poiid":64348324
        },
        {
            "ct_poi":"936879945111165696_a118_c1",
            "poiid":635698
        },
        {
            "ct_poi":"936879945111165696_a30_c2",
            "poiid":1525695
        },
        {
            "ct_poi":"936879945111165696_a17066_c3",
            "poiid":79147249
        },
        {
            "ct_poi":"936879945111165696_a24775_c4",
            "poiid":164970833
        },
        {
            "ct_poi":"936879945111165696_a59_c5",
            "poiid":79812
        },
        {
            "ct_poi":"936879945111165696_a16359_c6",
            "poiid":119976576
        },
        {
            "ct_poi":"936879945111165696_a16612_c7",
            "poiid":127565780
        },
        {
            "ct_poi":"936879945111165696_a13500_c8",
            "poiid":50585808
        },
        {
            "ct_poi":"936879945111165696_a24002_c9",
            "poiid":161835111
        },
        {
            "ct_poi":"936879945111165696_a23973_c10",
            "poiid":160809485
        },
        {
            "ct_poi":"936879945111165696_a13509_c11",
            "poiid":50364027
        },
        {
            "ct_poi":"936879945111165696_a24091_c12",
            "poiid":161883775
        },
        {
            "ct_poi":"936879945111165696_a17014_c13",
            "poiid":150598859
        },
        {
            "ct_poi":"936879945111165696_a8254_c14",
            "poiid":6482565
        },
        {
            "ct_poi":"936879945111165696_a9580_c15",
            "poiid":5646991
        },
        {
            "ct_poi":"936879945111165696_a7382_c16",
            "poiid":3300489
        },
        {
            "ct_poi":"936879945111165696_a16158_c17",
            "poiid":101114919
        },
        {
            "ct_poi":"936879945111165696_a93_c18",
            "poiid":270
        },
        {
            "ct_poi":"936879945111165696_a25300_c19",
            "poiid":173256481
        }
    ],
    "paging":{
        "hasMore":true,
        "limit":20,
        "offset":0,
        "total":184
    },
    "resId":"1527601299560"
}