{
    "coming":[
        {
            "id":341628,
            "img":"http://p1.meituan.net/w.h/movie/3d17aa5ee07f5d66239d8393bcb8fe5196556.jpg",
            "wish":401150,
            "wishst":0,
            "nm":"侏罗纪世界2",
            "comingTitle":"6月15日 周五"
        },
        {
            "id":248907,
            "img":"http://p1.meituan.net/w.h/movie/33930d2a1af607b5a6361dcc2e3c2204921311.jpg",
            "wish":225629,
            "wishst":0,
            "nm":"新乌龙院之笑闹江湖",
            "comingTitle":"7月13日 周五"
        },
        {
            "id":341516,
            "img":"http://p1.meituan.net/w.h/movie/1c4ed8635cc63bdb523980cb04c7f05b645983.jpg",
            "wish":179736,
            "wishst":0,
            "nm":"狄仁杰之四大天王",
            "comingTitle":"7月27日 周五"
        },
        {
            "id":1175253,
            "img":"http://p1.meituan.net/w.h/movie/5709b4f83a669c0dd8c78461da4ece33208095.jpg",
            "wish":157582,
            "wishst":0,
            "nm":"爱情公寓",
            "comingTitle":"8月10日 周五"
        },
        {
            "id":1207042,
            "img":"http://p0.meituan.net/w.h/movie/37534bc363906ab61233c089d1db47ac1093181.jpg",
            "wish":90118,
            "wishst":0,
            "nm":"哆啦A梦：大雄的金银岛",
            "comingTitle":"6月1日 周五"
        },
        {
            "id":1198178,
            "img":"http://p1.meituan.net/w.h/movie/37bf8a1b526a81147e3cbed85fcb413a4071417.jpg",
            "wish":78815,
            "wishst":0,
            "nm":"动物世界",
            "comingTitle":"6月29日 周五"
        },
        {
            "id":1200045,
            "img":"http://p0.meituan.net/w.h/movie/200526fd0facc141caeef984314f7ef8328722.jpg",
            "wish":69522,
            "wishst":0,
            "nm":"深海越狱",
            "comingTitle":"6月8日 周五"
        },
        {
            "id":246596,
            "img":"http://p1.meituan.net/w.h/movie/8cb6b1497847272b4a189d793bef1585787736.jpg",
            "wish":56347,
            "wishst":0,
            "nm":"昨日青空",
            "comingTitle":"8月10日 周五"
        },
        {
            "id":249165,
            "img":"http://p1.meituan.net/w.h/movie/f86bb150ebade73916d31b87638f3b4f1345603.jpg",
            "wish":54851,
            "wishst":0,
            "nm":"大轰炸",
            "comingTitle":"8月17日 周五"
        },
        {
            "id":248566,
            "img":"http://p0.meituan.net/w.h/movie/600db59c43c4291de3ec6aa565f1bc901790954.jpg",
            "wish":42086,
            "wishst":0,
            "nm":"邪不压正",
            "comingTitle":"7月13日 周五"
        }
    ],
    "paging":{
        "hasMore":true,
        "limit":10,
        "offset":0,
        "total":87
    }
}